atividade4
…
dori_gbif1 %>% 
  filter(waterBody %in% c("Atlantic Ocean", "Carribean", "Royal Caribbean", "Carribean Sea", "Bonaire")) %>% 
  distinct(datasetName)

## # A tibble: 1 x 1
##   datasetName                             
##   <chr>                                   
## 1 Diveboard - Scuba diving citizen science

buscando as ocorrncias para Diveboard - Scuba diving citizen science

dori_gbif1 %>% 
  filter(datasetName %in% c("Diveboard - Scuba diving citizen science"))

## # A tibble: 25 x 14
##    scientificName       acceptedScienti~ decimalLatitude decimalLongitude issues
##    <chr>                <chr>                      <dbl>            <dbl> <chr> 
##  1 Paracanthurus hepat~ Paracanthurus h~            4.11            119.  cdreps
##  2 Paracanthurus hepat~ Paracanthurus h~           -8.4             119.  cdreps
##  3 Paracanthurus hepat~ Paracanthurus h~           16.1             -61.8 cdreps
##  4 Paracanthurus hepat~ Paracanthurus h~           23.2             -81.2 cdreps
##  5 Paracanthurus hepat~ Paracanthurus h~           26.2             -80   cdreps
##  6 Paracanthurus hepat~ Paracanthurus h~           24.5             -81.9 cdreps
##  7 Paracanthurus hepat~ Paracanthurus h~           13.5             121.  cdreps
##  8 Paracanthurus hepat~ Paracanthurus h~           18.4             -69.7 cdreps
##  9 Paracanthurus hepat~ Paracanthurus h~           27.5              34.2 cdreps
## 10 Paracanthurus hepat~ Paracanthurus h~           19.3             -81.1 cdreps
## # ... with 15 more rows, and 9 more variables: waterBody <chr>,
## #   basisOfRecord <chr>, occurrenceStatus <chr>, rightsHolder <chr>,
## #   datasetName <chr>, recordedBy <chr>, depth <dbl>, locality <chr>,
## #   habitat <chr>
…
